{
  "query": [300, 600],
  "cases": [
    {"K": 1500, "grids": 10, "dimensions": 2, "weights": 50000, "dataset": 100000, "distribution": "UNI"},
    {"K": 6000, "grids": 10, "dimensions": 2, "weights": 50000, "dataset": 500000, "distribution": "UNI"},
    {"K": 10000, "grids": 10, "dimensions": 2, "weights": 50000, "dataset": 1000000, "distribution": "UNI"}
  ]
}
